Mini-Project 2
…
October 31, 2017

Swing States General Votes by District

This project is so interesting and relevant to my life!

ct <- house_elections %>%
  filter(state == "CT") %>%
  select(-fec_id, -incumbent, -state) %>%
  group_by(party) %>%
  arrange(district)
  
ct

## # A tibble: 32 x 7
## # Groups:   party [6]
##    district        candidate_name party primary_votes runoff_votes
##       <chr>                 <chr> <chr>         <int>        <int>
##  1       01  McDonald, Michael W.     R             0            0
##  2       01    Decker, John Henry     R             0            0
##  3       01    DeRosa, S. Michael     G             0            0
##  4       01     Corey, Matthew M.     P             0            0
##  5       01       Larson, John B.     W             0            0
##  6       02          Novak, Daria     R          7050            0
##  7       02        Dubitsky, Doug     R             0            0
##  8       02        Courtney, Joe      W             0            0
##  9       02 Coutu, Christopher D.     R             0            0
## 10       02      Formica, Paul M.     R         14256            0
## # ... with 22 more rows, and 2 more variables: general_votes <int>,
## #   ge_winner <chr>
…
